{
  "members": [
    {
      "bioguideId": "C000243",
      "depiction": {
        "attribution": "Collection of the U.S. House of Representatives",
        "imageUrl": "https://www.congress.gov/img/member/c000243_200.jpg"
      },
      "name": "Castle, Michael N.",
      "partyName": "Republican",
      "state": "Delaware",
      "terms": {
        "item": [
          {
            "chamber": "House of Representatives",
            "endYear": 2011,
            "startYear": 1993
          }
        ]
      },
      "updateDate": "2025-08-15T12:19:20Z",
      "url": "https://api.congress.gov/v3/member/C000243?format=json"
    },
    {
      "bioguideId": "G000590",
      "depiction": {
        "attribution": "Image courtesy of the Member",
        "imageUrl": "https://www.congress.gov/img/member/g000590_200.jpg"
      },
      "district": 7,
      "name": "Green, Mark E.",
      "partyName": "Republican",
      "state": "Tennessee",
      "terms": {
        "item": [
          {
            "chamber": "House of Representatives",
            "endYear": 2025,
            "startYear": 2019
          }
        ]
      },
      "updateDate": "2025-07-22T11:24:37Z",
      "url": "https://api.congress.gov/v3/member/G000590?format=json"
    },
    {
      "bioguideId": "C000488",
      "depiction": {
        "attribution": "Collection of the U.S. House of Representatives",
        "imageUrl": "https://www.congress.gov/img/member/c000488_200.jpg"
      },
      "district": 1,
      "name": "Clay, William (Bill)",
      "partyName": "Democratic",
      "state": "Missouri",
      "terms": {
        "item": [
          {
            "chamber": "House of Representatives",
            "endYear": 2001,
            "startYear": 1969
          }
        ]
      },
      "updateDate": "2025-07-18T12:34:17Z",
      "url": "https://api.congress.gov/v3/member/C000488?format=json"
    },
    {
      "bioguideId": "M001233",
      "depiction": {
        "attribution": "Image courtesy of the Member",
        "imageUrl": "https://www.congress.gov/img/member/677448630b34857ecc909125_200.jpg"
      },
      "district": 8,
      "name": "Messmer, Mark B.",
      "partyName": "Republican",
      "state": "Indiana",
      "terms": {
        "item": [
          {
            "chamber": "House of Representatives",
            "startYear": 2025
          }
        ]
      },
      "updateDate": "2025-07-14T14:25:50Z",
      "url": "https://api.congress.gov/v3/member/M001233?format=json"
    },
    {
      "bioguideId": "M000309",
      "depiction": {
        "attribution": "Collection of the U.S. House of Representatives",
        "imageUrl": "https://www.congress.gov/img/member/m000309_200.jpg"
      },
      "district": 4,
      "name": "McCarthy, Carolyn",
      "partyName": "Democratic",
      "state": "New York",
      "terms": {
        "item": [
          {
            "chamber": "House of Representatives",
            "endYear": 2015,
            "startYear": 1997
          }
        ]
      },
      "updateDate": "2025-06-27T11:45:39Z",
      "url": "https://api.congress.gov/v3/member/M000309?format=json"
    },
    {
      "bioguideId": "W000520",
      "depiction": {
        "attribution": "Collection of the U.S. House of Representatives, Gift of the U.S. Association of Former Members of Congress",
        "imageUrl": "https://www.congress.gov/img/member/w000520_200.jpg"
      },
      "name": "Williams, Pat",
      "partyName": "Democratic",
      "state": "Montana",
      "terms": {
        "item": [
          {
            "chamber": "House of Representatives",
            "endYear": 1997,
            "startYear": 1979
          }
        ]
      },
      "updateDate": "2025-06-26T18:44:31Z",
      "url": "https://api.congress.gov/v3/member/W000520?format=json"
    },
    {
      "bioguideId": "F000460",
      "depiction": {
        "attribution": "Collection of the U.S. House of Representatives",
        "imageUrl": "https://www.congress.gov/img/member/f000460_200.jpg"
      },
      "district": 27,
      "name": "Farenthold, Blake",
      "partyName": "Republican",
      "state": "Texas",
      "terms": {
        "item": [
          {
            "chamber": "House of Representatives",
            "endYear": 2018,
            "startYear": 2011
          }
        ]
      },
      "updateDate": "2025-06-23T14:10:40Z",
      "url": "https://api.congress.gov/v3/member/F000460?format=json"
    },
    {
      "bioguideId": "N000019",
      "depiction": {
        "attribution": "Congressional Pictorial Directory, 92nd Congress",
        "imageUrl": "https://www.congress.gov/img/member/n000019_200.jpg"
      },
      "district": 14,
      "name": "Nedzi, Lucien N.",
      "partyName": "Democratic",
      "state": "Michigan",
      "terms": {
        "item": [
          {
            "chamber": "House of Representatives",
            "endYear": 1981,
            "startYear": 1961
          }
        ]
      },
      "updateDate": "2025-06-18T17:52:12Z",
      "url": "https://api.congress.gov/v3/member/N000019?format=json"
    },
    {
      "bioguideId": "R000617",
      "depiction": {
        "attribution": "Image courtesy of the Member",
        "imageUrl": "https://www.congress.gov/img/member/684c2356333714e4aee2e1fd_200.jpg"
      },
      "district": 3,
      "name": "Ramirez, Delia C.",
      "partyName": "Democratic",
      "state": "Illinois",
      "terms": {
        "item": [
          {
            "chamber": "House of Representatives",
            "startYear": 2023
          }
        ]
      },
      "updateDate": "2025-06-13T13:48:04Z",
      "url": "https://api.congress.gov/v3/member/R000617?format=json"
    },
    {
      "bioguideId": "S001232",
      "depiction": {
        "attribution": "Official U.S. Senate Photo",
        "imageUrl": "https://www.congress.gov/img/member/677d8231fdb6cf36bbb6498b_200.jpg"
      },
      "name": "Sheehy, Tim",
      "partyName": "Republican",
      "state": "Montana",
      "terms": {
        "item": [
          {
            "chamber": "Senate",
            "startYear": 2025
          }
        ]
      },
      "updateDate": "2025-06-07T10:30:29Z",
      "url": "https://api.congress.gov/v3/member/S001232?format=json"
    },
    {
      "bioguideId": "L000570",
      "depiction": {
        "attribution": "Image courtesy of the Member",
        "imageUrl": "https://www.congress.gov/img/member/l000570_200.jpg"
      },
      "name": "Luj\u00e1n, Ben Ray",
      "partyName": "Democratic",
      "state": "New Mexico",
      "terms": {
        "item": [
          {
            "chamber": "House of Representatives",
            "endYear": 2021,
            "startYear": 2009
          },
          {
            "chamber": "Senate",
            "startYear": 2021
          }
        ]
      },
      "updateDate": "2025-06-03T13:18:42Z",
      "url": "https://api.congress.gov/v3/member/L000570?format=json"
    },
    {
      "bioguideId": "H001089",
      "depiction": {
        "imageUrl": "https://www.congress.gov/img/member/h001089_200.jpg"
      },
      "name": "Hawley, Josh",
      "partyName": "Republican",
      "state": "Missouri",
      "terms": {
        "item": [
          {
            "chamber": "Senate",
            "startYear": 2019
          }
        ]
      },
      "updateDate": "2025-05-28T10:30:24Z",
      "url": "https://api.congress.gov/v3/member/H001089?format=json"
    },
    {
      "bioguideId": "R000053",
      "depiction": {
        "attribution": "Collection of the U.S. House of Representatives <a href=\"http://history.house.gov/Collection/Detail/30753?ret=True\">About this object</a>",
        "imageUrl": "https://www.congress.gov/img/member/r000053_200.jpg"
      },
      "district": 13,
      "name": "Rangel, Charles B.",
      "partyName": "Democratic",
      "state": "New York",
      "terms": {
        "item": [
          {
            "chamber": "House of Representatives",
            "endYear": 2017,
            "startYear": 1971
          }
        ]
      },
      "updateDate": "2025-05-27T11:30:49Z",
      "url": "https://api.congress.gov/v3/member/R000053?format=json"
    },
    {
      "bioguideId": "W000800",
      "depiction": {
        "attribution": "Official U.S. Senate Photo",
        "imageUrl": "https://www.congress.gov/img/member/fd3cb364b8bf93c25834cff750637802_200.jpg"
      },
      "name": "Welch, Peter",
      "partyName": "Democratic",
      "state": "Vermont",
      "terms": {
        "item": [
          {
            "chamber": "House of Representatives",
            "endYear": 2023,
            "startYear": 2007
          },
          {
            "chamber": "Senate",
            "startYear": 2023
          }
        ]
      },
      "updateDate": "2025-05-24T10:30:30Z",
      "url": "https://api.congress.gov/v3/member/W000800?format=json"
    },
    {
      "bioguideId": "C001078",
      "depiction": {
        "attribution": "Image courtesy of the Member",
        "imageUrl": "https://www.congress.gov/img/member/c001078_200.jpg"
      },
      "district": 11,
      "name": "Connolly, Gerald E.",
      "partyName": "Democratic",
      "state": "Virginia",
      "terms": {
        "item": [
          {
            "chamber": "House of Representatives",
            "endYear": 2025,
            "startYear": 2009
          }
        ]
      },
      "updateDate": "2025-05-21T13:36:20Z",
      "url": "https://api.congress.gov/v3/member/C001078?format=json"
    },
    {
      "bioguideId": "M001242",
      "depiction": {
        "attribution": "Official U.S. Senate Photo",
        "imageUrl": "https://www.congress.gov/img/member/67c8694e6159152e59828afb_200.jpg"
      },
      "name": "Moreno, Bernie",
      "partyName": "Republican",
      "state": "Ohio",
      "terms": {
        "item": [
          {
            "chamber": "Senate",
            "startYear": 2025
          }
        ]
      },
      "updateDate": "2025-05-17T10:30:27Z",
      "url": "https://api.congress.gov/v3/member/M001242?format=json"
    },
    {
      "bioguideId": "B000611",
      "depiction": {
        "attribution": "<a href=\"http://www.senate.gov/artandhistory/history/common/generic/Photo_Collection_of_the_Senate_Historical_Office.htm\">Courtesy U.S. Senate Historical Office</a>",
        "imageUrl": "https://www.congress.gov/img/member/b000611_200.jpg"
      },
      "name": "Bond, Christopher S.",
      "partyName": "Republican",
      "state": "Missouri",
      "terms": {
        "item": [
          {
            "chamber": "Senate",
            "endYear": 2011,
            "startYear": 1987
          }
        ]
      },
      "updateDate": "2025-05-14T12:56:30Z",
      "url": "https://api.congress.gov/v3/member/B000611?format=json"
    },
    {
      "bioguideId": "M001229",
      "depiction": {
        "attribution": "Image courtesy of the Member",
        "imageUrl": "https://www.congress.gov/img/member/681dfed94fc893ce843e24b8_200.jpg"
      },
      "district": 10,
      "name": "McIver, LaMonica",
      "partyName": "Democratic",
      "state": "New Jersey",
      "terms": {
        "item": [
          {
            "chamber": "House of Representatives",
            "startYear": 2024
          }
        ]
      },
      "updateDate": "2025-05-09T13:45:32Z",
      "url": "https://api.congress.gov/v3/member/M001229?format=json"
    },
    {
      "bioguideId": "H001085",
      "depiction": {
        "attribution": "Image courtesy of the Member",
        "imageUrl": "https://www.congress.gov/img/member/681bc0e6b763f94d6e471f50_200.jpg"
      },
      "district": 6,
      "name": "Houlahan, Chrissy",
      "partyName": "Democratic",
      "state": "Pennsylvania",
      "terms": {
        "item": [
          {
            "chamber": "House of Representatives",
            "startYear": 2019
          }
        ]
      },
      "updateDate": "2025-05-08T13:36:39Z",
      "url": "https://api.congress.gov/v3/member/H001085?format=json"
    },
    {
      "bioguideId": "M001244",
      "name": "Moody, Ashley",
      "partyName": "Republican",
      "state": "Florida",
      "terms": {
        "item": [
          {
            "chamber": "Senate",
            "startYear": 2025
          }
        ]
      },
      "updateDate": "2025-05-07T10:42:23Z",
      "url": "https://api.congress.gov/v3/member/M001244?format=json"
    }
  ],
  "pagination": {
    "count": 2598,
    "next": "https://api.congress.gov/v3/member?name=Gregorio Eduardo Casar&offset=20&limit=20&format=json"
  },
  "request": {
    "contentType": "application/json",
    "format": "json"
  }
}